{
  "$schema": "http://json-schema.org/draft-06/schema#",
  "type": "object",
  "title": "OSB Unbind Service Request Schema",
  "additionalProperties": false,
  "properties": {
    "instanceId": {
      "Description": "",
      "type": "string"
    },
    "serviceId": {
      "Description": "",
      "type": "string"
    },
    "planId": {
      "Description": "",
      "type": "string"
    },
    "acceptsIncomplete": {
      "Description": "",
      "type": "boolean"
    }
  },
  "required": [
    "instanceId",
    "serviceId",
    "planId"
  ]
}
