{
  "$schema": "http://json-schema.org/draft-06/schema#",
  "type": "object",
  "title": "OSB Updatse Service Instance Request Schema",
  "additionalProperties": false,
  "properties": {
    "instanceId": {
      "Description": "",
      "type": "string"
    },
    "serviceId": {
      "Description": "",
      "type": "string"
    },
    "planId": {
      "Description": "",
      "type": "string"
    },
    "context": {
      "Description": "",
      "type": "object"
    },
    "previousValues": {
      "Description": "",
      "type": "object",
      "additionalProperties": false,
      "properties": {
        "serviceId": {
          "Description": "",
          "type": "string"
        },
        "planId": {
          "Description": "",
          "type": "string"
        },
        "organizationId": {
          "Description": "",
          "type": "string"
        },
        "spaceId": {
          "Description": "",
          "type": "string"
        }
      }
    },
    "parameters": {
      "Description": "",
      "type": "object"
    },
    "acceptsIncomplete": {
      "Description": "",
      "type": "boolean"
    }
  },
  "required": [
    "instanceId",
    "serviceId"
  ]
}
